Take Home Exercise 2 – ISSS608-VAA
…
edges_out_full <- edges_out %>%
  left_join(nodes_tbl %>% mutate(index = row_number()), by = c("to" = "index")) %>%
  select(from, to, `Edge Type`, name, `Node Type`, release_date,genre,notable,notoriety_date)

edges_out_full <- edges_out_full %>%
  left_join(nodes_tbl %>% select(index, creator_name = name), by = c("from" = "index")) %>%
  select(creator_name, `Edge Type`, name, `Node Type`, release_date,genre,notable,notoriety_date)

edges_oceanus <- edges_out_full %>%
  filter(genre == "Oceanus Folk")
edges_oceanus

# A tibble: 29 × 8
   creator_name      `Edge Type` name     `Node Type` release_date genre notable
   <chr>             <chr>       <chr>    <chr>       <chr>        <chr> <lgl>  
 1 Beatrice Albright PerformerOf Tideswo… Album       2031         Ocea… TRUE   
 2 Beatrice Albright LyricistOf  Tideswo… Album       2031         Ocea… TRUE   
 3 Beatrice Albright PerformerOf Tideswo… Album       2031         Ocea… TRUE   
 4 Beatrice Albright PerformerOf The Sir… Song        2031         Ocea… TRUE   
 5 Beatrice Albright PerformerOf Whisper… Song        2031         Ocea… TRUE   
 6 Beatrice Albright PerformerOf Moonlit… Song        2031         Ocea… TRUE   
 7 Beatrice Albright PerformerOf Seven F… Song        2031         Ocea… TRUE   
 8 Beatrice Albright LyricistOf  Tide-Wo… Album       2034         Ocea… TRUE   
 9 Beatrice Albright PerformerOf Tide-Wo… Album       2034         Ocea… TRUE   
10 Beatrice Albright LyricistOf  The Sun… Album       2035         Ocea… TRUE   
# ℹ 19 more rows
# ℹ 1 more variable: notoriety_date <chr>
…
